id_stacji,stacja,data_pomiaru,godzina_pomiaru,temperatura,predkosc_wiatru,kierunek_wiatru,wilgotnosc_wzgledna,suma_opadu,cisnienie
12295,Białystok,2018-07-23,17,23.3,2,340,67.5,0000000003.4,1010.3
12600,"Bielsko Biała",2018-07-23,17,24.7,3,340,37.1,0000000003.2,1011.5
12235,Chojnice,2018-07-23,17,25.5,4,360,48.4,0000000004.2,1013.6
12550,Częstochowa,2018-07-23,17,25.6,4,330,34.2,0000000024.5,1011.8
12556,Dźwirzyno,2018-04-09,5,7.2,2,99,91.4,000000000000,1007.4
12160,Elbląg,2018-07-23,17,22.6,3,20,62.3,0000000022.5,1013.7
12155,Gdańsk,2018-07-23,17,22.5,4,20,77.6,0000000018.7,1013.9
12300,Gorzów,2018-07-23,17,27.6,3,300,36.1,0000000003.5,1013.9
12135,Hel,2018-07-23,17,22.7,3,20,71.4,0000000004.4,1014.2
12500,"Jelenia Góra",2018-07-23,17,23.2,1,120,68.3,0000000003.1,1014.3
12435,Kalisz,2018-07-23,17,27.2,4,350,38.0,0000000002.7,1012.7
12650,"Kasprowy Wierch",2018-07-23,17,9.6,10,10,99.3,0000000038.5,
12560,Katowice,2018-07-23,17,26,2,20,32.2,000000000.01,1011.7
12185,Kętrzyn,2018-07-23,17,24.6,4,330,46.0,0000000006.6,1012.3
12570,Kielce,2018-07-23,17,25.6,5,350,40.2,000000000.01,1010.5
12520,Kłodzko,2018-07-23,17,23.9,6,350,49.0,0000000000.2,1013.6
12345,Koło,2018-07-23,17,26.8,2,360,40.0,0000000000.2,1012.4
12100,Kołobrzeg,2018-07-23,17,21.9,5,310,72.3,000000000.01,1015.2
12105,Koszalin,2018-07-23,17,21.8,4,310,71.3,000000000.01,1015
12488,Kozienice,2018-07-23,17,26.8,4,360,43.0,000000000.01,1010.2
12566,Kraków,2018-07-23,17,26,5,310,32.2,000000000.01,1010.8
12670,Krosno,2018-07-23,17,22.2,3,30,63.9,0000000006.4,1009.5
12415,Legnica,2018-07-23,17,26.5,3,10,45.0,0000000000.2,1013.5
12690,Lesko,2018-07-23,17,20,2,350,74.3,0000000001.3,1009.5
12418,Leszno,2018-07-23,17,25.3,4,290,52.0,0000000001.7,1013.3
12125,Lębork,2018-07-23,17,24.4,4,310,55.4,000000000001,1014
12495,Lublin,2018-07-23,17,21,3,10,80.0,0000000001.1,1009.8
12120,Łeba,2018-07-23,17,22.3,4,300,84.9,000000000.01,1014.4
12465,Łódź,2018-07-23,17,26.3,4,350,38.3,0000000001.7,1012.1
12280,Mikołajki,2018-07-23,17,24.9,5,330,50.3,0000000003.7,1012
12270,Mława,2018-07-23,17,25.5,3,360,45.0,000000000.01,1012.3
12660,"Nowy Sącz",2018-07-23,17,25.3,1,310,51.0,0000000000.4,1009.8
12272,Olsztyn,2018-07-23,17,24.7,5,350,48.3,0000000006.4,1013
12530,Opole,2018-07-23,17,27.6,2,340,36.3,000000000006,1012.2
12285,Ostrołęka,2018-07-23,17,26.7,4,99,45.0,000000000000,1011.4
12230,Piła,2018-07-23,17,25.2,2,280,55.2,000000000.01,1013.4
12001,Platforma,2018-07-23,17,21.6,3,270,74.6,,1013.6
12360,Płock,2018-07-23,17,26.2,4,10,40.1,000000000.01,1012.3
12330,Poznań,2018-07-23,17,26.1,3,330,46.1,0000000000.4,1013.3
12695,Przemyśl,2018-07-23,17,19.7,5,300,82.5,000000000000,1009.1
12540,Racibórz,2018-07-23,17,27.3,6,360,27.2,000000000.01,1012
12210,Resko,2018-07-23,17,23.8,4,320,57.1,000000000000,1014.6
12580,Rzeszów,2018-07-23,17,21.7,3,340,70.4,0000000001.7,1009.6
12585,Sandomierz,2018-07-23,17,25.4,4,330,47.1,0000000001.5,1009.2
12385,Siedlce,2018-07-23,17,26.8,5,360,50.0,0000000001.2,1009.8
12310,Słubice,2018-07-23,17,27.2,3,300,39.0,0000000001.2,1014.3
12469,Sulejów,2018-07-23,17,26.2,4,340,39.0,0000000000.1,1011.5
12195,Suwałki,2018-07-23,17,25.2,5,330,57.0,000000000.01,1010.4
12205,Szczecin,2018-07-23,17,24,4,350,59.4,0000000002.4,1015.1
12215,Szczecinek,2018-07-23,17,24.8,4,99,51.6,000000000000,1013.7
12510,Śnieżka,2018-07-23,17,13.3,11,340,76.9,0000000003.7,
12200,Świnoujście,2018-07-23,17,23.1,3,20,67.5,0000000003.4,1015.6
12575,Tarnów,2018-07-23,17,26.9,3,350,37.1,0000000000.6,1009.5
12399,Terespol,2018-07-23,17,24.5,4,360,60.3,0000000004.5,1008.9
12250,Toruń,2018-07-23,17,27.3,2,10,38.0,000000000.01,1012.6
12115,Ustka,2018-07-23,17,22.4,2,290,81.7,0000000030.5,1014.6
12375,Warszawa,2018-07-23,17,27,7,330,42.2,000000000.01,1010.8
12455,Wieluń,2018-07-23,17,26.2,4,10,36.2,0000000008.8,1012.2
12497,Włodawa,2018-07-23,17,21.3,2,320,84.8,0000000009.4,1009.1
12424,Wrocław,2018-07-23,17,27.7,2,320,41.0,0000000000.7,1013
12625,Zakopane,2018-07-23,17,20,3,310,60.1,0000000033.5,
12595,Zamość,2018-07-23,17,20.2,4,10,82.5,000000000.01,1009.1
12400,"Zielona Góra",2018-07-23,17,27.3,3,310,32.1,000000000007,1013.5
